{"devices": [ 
  {
    "uuid": "5d7c9553-3d2a-467b-acfd-c60bcabd8273",
    "lat": 23.43115,
    "long": -54.29007,
    "timestamp": 1490285067
  },
  {
    "uuid": "acca463e-bc04-4ffe-81e3-3866454fc235",
    "lat": -43.08248,
    "long": -42.57683,
    "timestamp": 1490285066
  },
  {
    "uuid": "b7bbf5ca-488a-4b37-b900-36a43e8bc104",
    "lat": 23.43115,
    "long": -77.55095,
    "timestamp": 1490285065
  },
  {
    "uuid": "0babd233-def7-4815-b85b-98548e896ac2",
    "lat": -54.29007,
    "long": -43.08248,
    "timestamp": 1490285064
  },
  {
    "uuid": "bf74d39f-60fc-4dcc-81cf-3f364d7b5ed7",
    "lat": -42.57683,
    "long": 23.43115,
    "timestamp": 1490285063
  },
  {
    "uuid": "1d5dbab2-e3cc-4171-9050-c1712ed1a421",
    "lat": -43.08248,
    "long": 54.29007,
    "timestamp": 1490285062
  },
  {
    "uuid": "e4a6bad4-3b33-4cdb-b5e2-fa3e46b89b51",
    "lat": 23.43115,
    "long": 42.57683,
    "timestamp": 1490285061
  },
  {
    "uuid": "685bb428-5bff-41ef-b2e1-c1a7c316b577",
    "lat": -43.08248,
    "long": 77.55095,
    "timestamp": 1490285060
  },
  {
    "uuid": "ff4d3fc7-3020-4d0c-ade6-79f4ca3de999",
    "lat": 23.43115,
    "long": 43.08248,
    "timestamp": 1490285059
  },
  {
    "uuid": "cc634c4c-7059-4ab0-a337-387d9b72a51f",
    "lat": -54.29007,
    "long": 23.43115,
    "timestamp": 1490285058
  },
  {
    "uuid": "73226aea-be93-4dfc-bcec-110564fd61b2",
    "lat": -42.57683,
    "long": -43.08248,
    "timestamp": 1490285057
  },
  {
    "uuid": "8d93a275-42fa-4f47-8732-c8f542dd9d26",
    "lat": 23.43115,
    "long": 23.43115,
    "timestamp": 1490285056
  },
  {
    "uuid": "b8d2692c-546c-4e76-b289-271da8274ec1",
    "lat": 54.29007,
    "long": -54.29007,
    "timestamp": 1490285055
  },
  {
    "uuid": "27d1596b-0653-4d90-9d82-df6195471fdb",
    "lat": 42.57683,
    "long": -42.57683,
    "timestamp": 1490285054
  },
  {
    "uuid": "3e7db4ef-e457-4c85-a7e2-c3ff5c3298fb",
    "lat": 77.55095,
    "long": 23.43115,
    "timestamp": 1490285053
  },
  {
    "uuid": "a9a4b31d-425d-455f-99cd-750821921f0a",
    "lat": 23.43115,
    "long": -43.08248,
    "timestamp": 1490285052
  },
  {
    "uuid": "de795737-c050-4815-93c4-ad5a165bfe51",
    "lat": 54.29007,
    "long": 23.43115,
    "timestamp": 1490285051
  },
  {
    "uuid": "ce59d58a-3b96-4ec8-b782-c486cbb37c57",
    "lat": 42.57683,
    "long": -54.29007,
    "timestamp": 1490285050
  },
  {
    "uuid": "735d1e7d-29ff-4f05-845d-48c05457336a",
    "lat": 77.55095,
    "long": -42.57683,
    "timestamp": 1490285049
  },
  {
    "uuid": "33fec6c0-3659-46c6-8c8a-8cd179323e73",
    "lat": 43.08248,
    "long": 23.43115,
    "timestamp": 1490285048
  },
  {
    "uuid": "3a9972a6-4634-4c06-bff2-7f57c7a02e58",
    "lat": 23.43115,
    "long": 54.29007,
    "timestamp": 1490285047
  },
  {
    "uuid": "e4c09fea-b854-48cb-808e-da36bdfc4b50",
    "lat": -43.08248,
    "long": 42.57683,
    "timestamp": 1490285046
  },
  {
    "uuid": "ff152ace-c762-42f0-9e6c-5ae9e23e1360",
    "lat": 23.43115,
    "long": 77.55095,
    "timestamp": 1490285045
  },
  {
    "uuid": "0d9dde3e-1d66-4a8b-8ef5-36be5a45d805",
    "lat": -54.29007,
    "long": 42.57683,
    "timestamp": 1490285044
  },
  {
    "uuid": "1b2680ef-c95f-4a58-9995-4ab125058ff7",
    "lat": -42.57683,
    "long": 77.55095,
    "timestamp": 1490285043
  },
  {
    "uuid": "15e30972-c803-422c-b324-422f7467e893",
    "lat": -77.55095,
    "long": 54.29007,
    "timestamp": 1490285042
  },
  {
    "uuid": "cfb56035-2394-40fa-a3d5-a10fe29168ee",
    "lat": -43.08248,
    "long": 54.29007,
    "timestamp": 1490285041
  },
  {
    "uuid": "40e58322-134e-4f0d-b065-e518e09d3a22",
    "lat": 39.87,
    "long": -77.275,
    "timestamp": 1490285067
  },
  {
    "uuid": "9e3ceb78-6b71-41e8-aae3-16d27c5fcb18",
    "lat": -77.55095,
    "long": -148.39879,
    "timestamp": 1490285066
  },
  {
    "uuid": "cb5491d9-145b-495c-b233-43fcf1becfac",
    "lat": -43.08248,
    "long": -54.29007,
    "timestamp": 1490285065
  },
  {
    "uuid": "5cb6801c-3cfb-45c1-9456-17ccdd611ced",
    "lat": 23.43115,
    "long": -42.57683,
    "timestamp": 1490285064
  },
  {
    "uuid": "356adafd-8e9a-4a5d-bf7e-bdb92c8b699b",
    "lat": 39.87,
    "long": -77.275,
    "timestamp": 1490285063
  },
  {
    "uuid": "e8dd188f-da47-4623-80f0-5fd56fa0ff52",
    "lat": -77.55095,
    "long": -148.39879,
    "timestamp": 1490285062
  },
  {
    "uuid": "f7e358b8-3219-4e79-9e79-199463f4ce40",
    "lat": -43.08248,
    "long": -54.29007,
    "timestamp": 1490285061
  },
  {
    "uuid": "747b23ec-4c61-4d75-bcd7-7d0e7d7e9afa",
    "lat": 23.43115,
    "long": -42.57683,
    "timestamp": 1490285060
  },
  {
    "uuid": "875f0cc0-6cde-4e94-bcea-af0c15c6a6e4",
    "lat": -54.29007,
    "long": -77.55095,
    "timestamp": 1490285059
  },
  {
    "uuid": "e08aa180-183d-4c91-8b24-7592408b4493",
    "lat": -42.57683,
    "long": -43.08248,
    "timestamp": 1490285058
  },
  {
    "uuid": "940076e6-acdd-448e-baa0-1c3ed50cbae6",
    "lat": -77.275,
    "long": 23.43115,
    "timestamp": 1490285057
  },
  {
    "uuid": "1fe328e4-1448-409f-ad3f-807b269f933e",
    "lat": -54.29007,
    "long": -43.08248,
    "timestamp": 1490285056
  },
  {
    "uuid": "91d7e07d-feaf-4ffb-98a4-57f78bb2849b",
    "lat": -42.57683,
    "long": 23.43115,
    "timestamp": 1490285055
  },
  {
    "uuid": "5f1d01a0-4473-4d01-9b73-a39ce2133010",
    "lat": -77.55095,
    "long": -54.29007,
    "timestamp": 1490285054
  },
  {
    "uuid": "86ea6b32-869f-4591-8b5c-dd8393796133",
    "lat": -43.08248,
    "long": -42.57683,
    "timestamp": 1490285053
  },
  {
    "uuid": "198d6e43-d9b1-4569-9a3e-3a857af444a1",
    "lat": 23.43115,
    "long": -43.08248,
    "timestamp": 1490285052
  },
  {
    "uuid": "d13e01a3-946d-42e0-9b4c-ac27f171ee57",
    "lat": 54.29007,
    "long": 23.43115,
    "timestamp": 1490285051
  },
  {
    "uuid": "52484940-e3eb-462e-9e2f-6b3a3f87cc60",
    "lat": 42.57683,
    "long": -43.08248,
    "timestamp": 1490285050
  },
  {
    "uuid": "134a2c25-a76f-455b-ae95-0c39678690e6",
    "lat": 77.55095,
    "long": 23.43115,
    "timestamp": 1490285049
  },
  {
    "uuid": "7a65a63b-5e0f-4326-a899-38099fe5fdb9",
    "lat": 43.08248,
    "long": -54.29007,
    "timestamp": 1490285048
  },
  {
    "uuid": "58f423fd-e622-45d4-a0d3-7221ad1b5fda",
    "lat": 23.43115,
    "long": -42.57683,
    "timestamp": 1490285047
  },
  {
    "uuid": "cd4469ea-e9e6-44cd-a00e-54a99dd2b73f",
    "lat": -43.08248,
    "long": 23.43115,
    "timestamp": 1490285046
  },
  {
    "uuid": "b6a819c9-ed1b-4ab0-ad2e-8e1177ec2908",
    "lat": 23.43115,
    "long": 54.29007,
    "timestamp": 1490285045
  }
]}